# アイデアなどのメモ


# 集合
101個の集合で-101点、 1つ分の連結が意味なくなる
単純に
- - - - - - ... - -
- A A A A A ... A -
- - - - - - ... - -
みたいな101個の集合だとすると最大で208個の頂点集合と連結できてスコア208*100=20800点
1個集合を増やしてスコア-1点して連結が2個増えて+200点なら全然プラスなので
スコアになる連結対象が少ない場合にのみ集合の大きさを気にすればよいのでは？
例えばスコアになる連結が2つしかなく両方に連結するには201個以上の集合にならないとダメとかはまぁアウトでいいと思う
そもそも200個も数珠繋ぎとかスペース食いすぎだし他の集合を優先したほうがいいかもしれない
ただ、スコアになる連結が全て達成されるとボーナス10000点があるから場合によってはマイナスの数珠繋ぎも有効なのかもしれない

入力グラフが小さく、出力先(キングスグラフ)が大きい場合にボーナスがもらえるようなパターンを見つけ出すというのを考えるとかしたほうがいいかも

# 集合の拡張

(Vemb - V) が集合の拡張の限界値

- 入力の各頂点でスコアになる連結が最大でも8以下なら1stのコンテストと大差ない
    -> 2個以上の集合作ったほうがいいケースがあることに気づいたので1stとは違う

- (Vemb - V) == 0 の場合も1stのコンテストと大差ない

- (Vemb - V) の値が小さいケースと大きいケースでは最適な構成の仕方が違うような気がする

# idea1のアイデア

1stコンテストの頂点選択に重複を許すというやりかたで集合形成
正しくスコア計算をしないとうまくいかないことが判明している(正しいスコア計算するとうまく行くとは言っているわけではない)


# idea2のアイデア

クロスさせた2個集合を大量に作ってそこに頂点を当てはめる感じで探す


# 集合を斜めにつなげると他の集合と交差できる

A b c d A
b A b A f
A g A b h

他の集合との接し方次第では空間の使い方がもったいない感じもする



# 一列をズラして１個入れるというアイデア

a b c d e
f g h i j
k l m n o
を
a b c d e
f   g h i j
k l m n o
とズラす
ズラす方向と逆の側との連結がズラした一列全部に影響が出る



# 先に集合を大量に作ってその集合にふさわしい頂点を決めていくのはどうか

- b c
b a d
e f g
と集合を作って
a -> 2, b -> 3, c -> 1, d -> 4, e -> 6, f -> 5, g -> 7 ...など対応頂点を決めて
- 3 1
3 2 4
6 5 7
という感じに


# のばす方向

- - -
- A -  8つの頂点と接することができる
- - -  

- - - -
- A A -  10つの頂点と接することができる
- - - - 

- - - - -
- A A A - 12つの頂点と接することができる
- - - - - 

- - -
- A - -  12つの頂点と接することができる
- - A -
  - - -

- - -
- A - -
- - A - -  16つの頂点と接することができる
  - - A -
    - - -

- - -
- A - - -  14つの頂点と接することができる
- - A A -
  - - - -

- - - - -
- A - A -  15つの頂点と接することができる
- - A - -
  - - -
  
    
# 4つ以下の頂点ならキングスグラフの４頂点が完全グラフゆえに互いの接触を満たせる

A - B
| X |
C - D


# 特定の2つの頂点と接触できる(単独)頂点

- - -
* A *
* B *   4つ
- - -

  - - -
- * A -
- B * -  2つ
- - -

- * * -
* A B -
* B * -  5つ
- - -

  - - -
- * A - -
- B * A -
- - B * -  3つ
  - - -

- - -
- A - -
* * A -
- B * *
- - B -  4つ
  - - -

- * * -
* A B *
* B A *  8つ
- * * -


- * * * -
* A B A *
* B A B *  10つ
- * * * -

- * * * -
- A B A *
- * A B *
  - * A *  8つ
    - - -

- * * * -
* A B A *
* B A B * 
* A B A *  12つ
- * * * -


# ３つの頂点と接触できる(単独)頂点

- - * - -
- A B C -  2つ
- - * - -

- - - -
- A B -  2つ
- * * -
- C -
- - -

- - -
- A - - -  1つ
- - * B -
- C - - -
- - -

- - - - -
- A B - -  1つ 
- - * C -
    - - -
    
- - - - -
- A * C -  1つ
- - B - -
  - - -

  - - -
- - A - -
- A B A - 3つ
- * * * -
  - C -
  - - -
  
  - - -
- - A -    2つ
- A B * -
- - * C -
    - - -

  - - -
- - A * - -  4つ
- A B * C -
- * * C - -
  - C - -
  - - - 
    
# ５つの頂点が互いに接触を満たす形

- - - -
- A B - -
- B A E -
- C D E -
- D C - -
- - - -
または
  - - - -
- - B A -
- B A E -
- C D E -
- D C - -
- - - -
または省スペースで
  - - -
- - B - - (要するにAやDは角方向に伸ばせる、もちろんB,C,Eを伸ばしてもよい)
- B A E -
- C D E -
- - C - -
  - - -



# ６つの頂点が互いに接触を満たす形

- - - - - -
- A B F E -
- B A E F -
- C D F E -
- D C E F -
- - - - - -
または省スペースで
  - - - -
- - B F - -  (AやDやEは角方向に伸ばせる、もちろんB,C,Fを伸ばしてもよい)
- B A E F - 
- C D F E -
- - C E - -
  - - - -

# 7つの頂点が互いに接触を満たす形

    - - - - - -
  - - A B F E -
- - G B A E F -
- G - C D F E -
- - G D C E F -
  - - G - G - -
    - - G - -
      - - -


# 8つの頂点が互いに接触を満たす形

      - - -
    - - H - -
  - - H - H - -
- - H A B F E -
- H G B A E F -
- G H C D F E -  (A,B,C,Dが埋もれている…)
- - G D C E F -
  - - G - G - -
    - - G - -
      - - -

# 9つの頂点が互いに接触を満たす形(縦横連結が生じてしまう…)

      - - - -
    - - H I - -
  - - H I H I - -
- - H A B F E I -
- H G B A E F I -
- G H C D F E I -  (B,Cが完全に埋もれている…)
- - G D C E F I -
  - - G I G I - -
    - - G I - -
      - - - -

    - - - -
  - - I I - -
  - I B H I - -
  - A H B H I - -
- - H A B F E I -
- H G B A E F I -
- G H C D F E I - (A~Iすべて外側への接点を持つが…)
- - G D C E F I -
  - D G C G I -
  - I C G I - -
  - - I I - -
    - - - -




# 『く』の字をランダムに配置とか
    A
  A 
A
  A
    A

B
  B
    B
  B
B

C       C 
  C   C
    C

    D
  D   D
D       D


          - - -
        - - D - -
    - - - D - D - -
- - - A D - - - D -   無駄が多そう
- C A - B C - - - -   『く』の字にならない隙間をどう埋めるか
- A C - C B - -
- - A C - - B -
  - - A - B - -
    - - B - -
      - - -

      
      